#FIG 3.2
Landscape
Center
Metric
Letter  
100.00
Single
-2
1200 2
0 32 #808080
0 33 #bab7ba
6 1215 630 1485 945
2 1 0 2 4 7 52 0 -1 0.000 0 0 -1 0 0 2
	 1350 855 1350 900
2 1 0 2 4 7 50 0 -1 0.000 0 0 -1 0 0 2
	 1440 855 1260 855
4 1 0 50 0 0 12 0.0000 4 135 225 1350 765 LC\001
-6
6 1890 1305 2160 1620
2 1 0 2 4 7 52 0 -1 0.000 0 0 -1 0 0 2
	 2025 1530 2025 1575
2 1 0 2 4 7 50 0 -1 0.000 0 0 -1 0 0 2
	 2115 1530 1935 1530
4 1 0 50 0 0 12 0.0000 4 135 225 2025 1440 LC\001
-6
6 7065 1980 7335 2295
2 1 0 2 4 7 52 0 -1 0.000 0 0 -1 0 0 2
	 7200 2205 7200 2250
2 1 0 2 4 7 50 0 -1 0.000 0 0 -1 0 0 2
	 7290 2205 7110 2205
4 1 0 50 0 0 12 0.0000 4 135 225 7200 2115 LC\001
-6
1 3 0 1 0 7 50 0 -1 0.000 1 0.0000 2880 2700 162 162 2880 2700 2970 2835
1 3 0 1 0 7 50 0 -1 0.000 1 0.0000 4455 2700 162 162 4455 2700 4545 2835
1 3 0 1 0 7 50 0 -1 0.000 1 0.0000 7380 2700 162 162 7380 2700 7470 2835
1 3 0 1 24 26 50 0 20 0.000 1 0.0000 6840 2700 64 64 6840 2700 6904 2700
1 3 0 1 24 26 50 0 20 0.000 1 0.0000 1665 2700 64 64 1665 2700 1729 2700
2 2 0 1 0 7 50 0 -1 0.000 0 0 -1 0 0 5
	 2250 2250 3375 2250 3375 3150 2250 3150 2250 2250
2 2 0 1 0 7 50 0 -1 0.000 0 0 -1 0 0 5
	 1800 1800 5400 1800 5400 3600 1800 3600 1800 1800
2 2 0 1 0 7 50 0 -1 0.000 0 0 -1 0 0 5
	 3825 2250 4950 2250 4950 3150 3825 3150 3825 2250
2 2 0 1 0 7 50 0 -1 0.000 0 0 -1 0 0 5
	 1575 1575 5625 1575 5625 3825 1575 3825 1575 1575
2 2 0 1 0 7 50 0 -1 0.000 0 0 -1 0 0 5
	 6750 2250 7875 2250 7875 3150 6750 3150 6750 2250
2 2 0 1 0 7 50 0 -1 0.000 0 0 -1 0 0 5
	 2430 2430 3195 2430 3195 2970 2430 2970 2430 2430
2 2 0 1 0 7 50 0 -1 0.000 0 0 -1 0 0 5
	 4005 2430 4770 2430 4770 2970 4005 2970 4005 2430
2 2 0 1 0 7 50 0 -1 0.000 0 0 -1 0 0 5
	 6930 2430 7695 2430 7695 2970 6930 2970 6930 2430
2 2 0 1 0 7 50 0 -1 0.000 0 0 -1 0 0 5
	 1125 1125 8325 1125 8325 4275 1125 4275 1125 1125
2 2 0 1 0 7 50 0 -1 0.000 0 0 -1 0 0 5
	 900 900 8550 900 8550 4500 900 4500 900 900
